{
"device": "cython",
"evolve_bench": [
{
"conf": "-d cython --fastmath 1 -l 32 -t 512 -s 2",
"rep": 1,
"timings": {"real": 25.18, "usr": 251.02, "sys": 1.37, "embedded": {"total": 17.9519040585, "avg": 0.897595202923}}
},
{
"conf": "-d cython --fastmath 1 -l 32 -t 512 -s 2",
"rep": 2,
"timings": {"real": 25.11, "usr": 249.94, "sys": 1.39, "embedded": {"total": 17.8788440228, "avg": 0.893942201138}}
},
{
"conf": "-d cython --fastmath 1 -l 64 -t 256 -s 2",
"rep": 1,
"timings": {"real": 12.99, "usr": 132.27, "sys": 1.43, "embedded": {"total": 8.95977807045, "avg": 0.447988903522}}
},
{
"conf": "-d cython --fastmath 1 -l 64 -t 256 -s 2",
"rep": 2,
"timings": {"real": 13.02, "usr": 132.76, "sys": 1.53, "embedded": {"total": 9.00544095039, "avg": 0.45027204752}}
},
{
"conf": "-d cython --fastmath 1 -l 128 -t 256 -s 2",
"rep": 1,
"timings": {"real": 24.81, "usr": 245.23, "sys": 2.76, "embedded": {"total": 16.652328968, "avg": 0.832616448402}}
},
{
"conf": "-d cython --fastmath 1 -l 128 -t 256 -s 2",
"rep": 2,
"timings": {"real": 24.97, "usr": 246.31, "sys": 2.89, "embedded": {"total": 16.7988908291, "avg": 0.839944541454}}
},
{
"conf": "-d cython --fastmath 1 -l 256 -t 128 -s 2",
"rep": 1,
"timings": {"real": 11.55, "usr": 115.30, "sys": 1.49, "embedded": {"total": 7.31661295891, "avg": 0.365830647945}}
},
{
"conf": "-d cython --fastmath 1 -l 256 -t 128 -s 2",
"rep": 2,
"timings": {"real": 11.58, "usr": 115.64, "sys": 1.51, "embedded": {"total": 7.37974500656, "avg": 0.368987250328}}
},
{
"conf": "-d cython --fastmath 1 -l 512 -t 128 -s 2",
"rep": 1,
"timings": {"real": 22.93, "usr": 223.45, "sys": 2.73, "embedded": {"total": 14.5657598972, "avg": 0.728287994862}}
},
{
"conf": "-d cython --fastmath 1 -l 512 -t 128 -s 2",
"rep": 2,
"timings": {"real": 22.86, "usr": 221.95, "sys": 2.77, "embedded": {"total": 14.5152959824, "avg": 0.725764799118}}
},
{
"conf": "-d cython --fastmath 1 -l 1024 -t 64 -s 2",
"rep": 1,
"timings": {"real": 11.73, "usr": 117.26, "sys": 1.56, "embedded": {"total": 7.40730690956, "avg": 0.370365345478}}
},
{
"conf": "-d cython --fastmath 1 -l 1024 -t 64 -s 2",
"rep": 2,
"timings": {"real": 11.60, "usr": 116.01, "sys": 1.54, "embedded": {"total": 7.2651309967, "avg": 0.363256549835}}
},
{
"conf": "-d cython --fastmath 1 -l 2048 -t 64 -s 2",
"rep": 1,
"timings": {"real": 23.05, "usr": 224.32, "sys": 2.91, "embedded": {"total": 14.5324110985, "avg": 0.726620554924}}
},
{
"conf": "-d cython --fastmath 1 -l 2048 -t 64 -s 2",
"rep": 2,
"timings": {"real": 23.11, "usr": 224.41, "sys": 2.79, "embedded": {"total": 14.5883419514, "avg": 0.729417097569}}
},
{
"conf": "-d cython --fastmath 1 -l 32 -t 512 -s 4",
"rep": 1,
"timings": {"real": 46.45, "usr": 493.99, "sys": 1.47, "embedded": {"total": 36.6458778381, "avg": 1.83229389191}}
},
{
"conf": "-d cython --fastmath 1 -l 32 -t 512 -s 4",
"rep": 2,
"timings": {"real": 46.39, "usr": 493.60, "sys": 1.64, "embedded": {"total": 36.5777258873, "avg": 1.82888629436}}
},
{
"conf": "-d cython --fastmath 1 -l 64 -t 256 -s 4",
"rep": 1,
"timings": {"real": 23.29, "usr": 251.05, "sys": 1.76, "embedded": {"total": 18.0790529251, "avg": 0.903952646255}}
},
{
"conf": "-d cython --fastmath 1 -l 64 -t 256 -s 4",
"rep": 2,
"timings": {"real": 23.30, "usr": 251.17, "sys": 1.73, "embedded": {"total": 18.0782289505, "avg": 0.903911447525}}
},
{
"conf": "-d cython --fastmath 1 -l 128 -t 256 -s 4",
"rep": 1,
"timings": {"real": 41.58, "usr": 436.27, "sys": 3.07, "embedded": {"total": 30.6210279465, "avg": 1.53105139732}}
},
{
"conf": "-d cython --fastmath 1 -l 128 -t 256 -s 4",
"rep": 2,
"timings": {"real": 41.40, "usr": 434.85, "sys": 3.01, "embedded": {"total": 30.4639251232, "avg": 1.52319625616}}
},
{
"conf": "-d cython --fastmath 1 -l 256 -t 128 -s 4",
"rep": 1,
"timings": {"real": 20.81, "usr": 221.35, "sys": 1.64, "embedded": {"total": 15.055341959, "avg": 0.75276709795}}
},
{
"conf": "-d cython --fastmath 1 -l 256 -t 128 -s 4",
"rep": 2,
"timings": {"real": 21.01, "usr": 222.84, "sys": 1.76, "embedded": {"total": 15.2553310394, "avg": 0.762766551971}}
},
{
"conf": "-d cython --fastmath 1 -l 512 -t 128 -s 4",
"rep": 1,
"timings": {"real": 41.07, "usr": 431.49, "sys": 3.08, "embedded": {"total": 29.8026459217, "avg": 1.49013229609}}
},
{
"conf": "-d cython --fastmath 1 -l 512 -t 128 -s 4",
"rep": 2,
"timings": {"real": 41.07, "usr": 430.48, "sys": 3.04, "embedded": {"total": 29.8093669415, "avg": 1.49046834707}}
},
{
"conf": "-d cython --fastmath 1 -l 1024 -t 64 -s 4",
"rep": 1,
"timings": {"real": 21.09, "usr": 224.86, "sys": 1.59, "embedded": {"total": 15.2182810307, "avg": 0.760914051533}}
},
{
"conf": "-d cython --fastmath 1 -l 1024 -t 64 -s 4",
"rep": 2,
"timings": {"real": 21.16, "usr": 225.63, "sys": 1.67, "embedded": {"total": 15.2983589172, "avg": 0.764917945862}}
},
{
"conf": "-d cython --fastmath 1 -l 2048 -t 64 -s 4",
"rep": 1,
"timings": {"real": 42.20, "usr": 442.09, "sys": 3.28, "embedded": {"total": 30.6099569798, "avg": 1.53049784899}}
},
{
"conf": "-d cython --fastmath 1 -l 2048 -t 64 -s 4",
"rep": 2,
"timings": {"real": 42.25, "usr": 443.63, "sys": 2.97, "embedded": {"total": 30.7080180645, "avg": 1.53540090322}}
},
{
"conf": "-d cython --fastmath 1 -l 32 -t 512 -s 8",
"rep": 1,
"timings": {"real": 89.72, "usr": 990.70, "sys": 1.83, "embedded": {"total": 74.4581050873, "avg": 3.72290525436}}
},
{
"conf": "-d cython --fastmath 1 -l 32 -t 512 -s 8",
"rep": 2,
"timings": {"real": 89.83, "usr": 991.36, "sys": 2.08, "embedded": {"total": 74.5180740356, "avg": 3.72590370178}}
},
{
"conf": "-d cython --fastmath 1 -l 64 -t 256 -s 8",
"rep": 1,
"timings": {"real": 39.20, "usr": 429.89, "sys": 1.93, "embedded": {"total": 31.2263288498, "avg": 1.56131644249}}
},
{
"conf": "-d cython --fastmath 1 -l 64 -t 256 -s 8",
"rep": 2,
"timings": {"real": 39.13, "usr": 428.22, "sys": 2.05, "embedded": {"total": 31.1636908054, "avg": 1.55818454027}}
},
{
"conf": "-d cython --fastmath 1 -l 128 -t 256 -s 8",
"rep": 1,
"timings": {"real": 80.36, "usr": 876.63, "sys": 3.58, "embedded": {"total": 63.0636150837, "avg": 3.15318075418}}
},
{
"conf": "-d cython --fastmath 1 -l 128 -t 256 -s 8",
"rep": 2,
"timings": {"real": 80.07, "usr": 874.28, "sys": 3.59, "embedded": {"total": 62.890255928, "avg": 3.1445127964}}
},
{
"conf": "-d cython --fastmath 1 -l 256 -t 128 -s 8",
"rep": 1,
"timings": {"real": 40.40, "usr": 442.87, "sys": 2.02, "embedded": {"total": 31.3922679424, "avg": 1.56961339712}}
},
{
"conf": "-d cython --fastmath 1 -l 256 -t 128 -s 8",
"rep": 2,
"timings": {"real": 39.88, "usr": 438.64, "sys": 1.91, "embedded": {"total": 31.0955429077, "avg": 1.55477714539}}
},
{
"conf": "-d cython --fastmath 1 -l 512 -t 128 -s 8",
"rep": 1,
"timings": {"real": 80.16, "usr": 875.56, "sys": 3.61, "embedded": {"total": 62.3802919388, "avg": 3.11901459694}}
},
{
"conf": "-d cython --fastmath 1 -l 512 -t 128 -s 8",
"rep": 2,
"timings": {"real": 80.30, "usr": 875.96, "sys": 3.53, "embedded": {"total": 62.6444950104, "avg": 3.13222475052}}
},
{
"conf": "-d cython --fastmath 1 -l 1024 -t 64 -s 8",
"rep": 1,
"timings": {"real": 43.09, "usr": 472.70, "sys": 2.03, "embedded": {"total": 33.729336977, "avg": 1.68646684885}}
},
{
"conf": "-d cython --fastmath 1 -l 1024 -t 64 -s 8",
"rep": 2,
"timings": {"real": 42.47, "usr": 466.93, "sys": 2.24, "embedded": {"total": 33.1657559872, "avg": 1.65828779936}}
},
{
"conf": "-d cython --fastmath 1 -l 2048 -t 64 -s 8",
"rep": 1,
"timings": {"real": 83.81, "usr": 914.59, "sys": 3.66, "embedded": {"total": 65.6067609787, "avg": 3.28033804893}}
},
{
"conf": "-d cython --fastmath 1 -l 2048 -t 64 -s 8",
"rep": 2,
"timings": {"real": 84.46, "usr": 922.21, "sys": 4.00, "embedded": {"total": 66.2426290512, "avg": 3.31213145256}}
}
],
"full_bench": [
{
"conf": "-d cython --fastmath 1 -l 32 -t 512 -s 2",
"rep": 1,
"timings": {"real": 45.40, "usr": 481.23, "sys": 2.15, "embedded": null}
},
{
"conf": "-d cython --fastmath 1 -l 32 -t 512 -s 2",
"rep": 2,
"timings": {"real": 44.97, "usr": 478.14, "sys": 2.15, "embedded": null}
},
{
"conf": "-d cython --fastmath 1 -l 64 -t 256 -s 2",
"rep": 1,
"timings": {"real": 23.35, "usr": 254.17, "sys": 1.97, "embedded": null}
},
{
"conf": "-d cython --fastmath 1 -l 64 -t 256 -s 2",
"rep": 2,
"timings": {"real": 23.11, "usr": 252.57, "sys": 1.96, "embedded": null}
},
{
"conf": "-d cython --fastmath 1 -l 128 -t 256 -s 2",
"rep": 1,
"timings": {"real": 43.81, "usr": 470.31, "sys": 3.25, "embedded": null}
},
{
"conf": "-d cython --fastmath 1 -l 128 -t 256 -s 2",
"rep": 2,
"timings": {"real": 43.70, "usr": 468.06, "sys": 3.22, "embedded": null}
},
{
"conf": "-d cython --fastmath 1 -l 256 -t 128 -s 2",
"rep": 1,
"timings": {"real": 21.10, "usr": 228.67, "sys": 1.72, "embedded": null}
},
{
"conf": "-d cython --fastmath 1 -l 256 -t 128 -s 2",
"rep": 2,
"timings": {"real": 20.88, "usr": 225.92, "sys": 1.56, "embedded": null}
},
{
"conf": "-d cython --fastmath 1 -l 512 -t 128 -s 2",
"rep": 1,
"timings": {"real": 41.81, "usr": 446.90, "sys": 3.17, "embedded": null}
},
{
"conf": "-d cython --fastmath 1 -l 512 -t 128 -s 2",
"rep": 2,
"timings": {"real": 41.53, "usr": 444.04, "sys": 2.97, "embedded": null}
},
{
"conf": "-d cython --fastmath 1 -l 1024 -t 64 -s 2",
"rep": 1,
"timings": {"real": 20.75, "usr": 224.99, "sys": 1.68, "embedded": null}
},
{
"conf": "-d cython --fastmath 1 -l 1024 -t 64 -s 2",
"rep": 2,
"timings": {"real": 21.16, "usr": 229.02, "sys": 1.66, "embedded": null}
},
{
"conf": "-d cython --fastmath 1 -l 2048 -t 64 -s 2",
"rep": 1,
"timings": {"real": 41.54, "usr": 443.42, "sys": 2.90, "embedded": null}
},
{
"conf": "-d cython --fastmath 1 -l 2048 -t 64 -s 2",
"rep": 2,
"timings": {"real": 41.93, "usr": 448.03, "sys": 3.09, "embedded": null}
},
{
"conf": "-d cython --fastmath 1 -l 32 -t 512 -s 4",
"rep": 1,
"timings": {"real": 65.24, "usr": 708.50, "sys": 2.40, "embedded": null}
},
{
"conf": "-d cython --fastmath 1 -l 32 -t 512 -s 4",
"rep": 2,
"timings": {"real": 65.33, "usr": 710.45, "sys": 2.49, "embedded": null}
},
{
"conf": "-d cython --fastmath 1 -l 64 -t 256 -s 4",
"rep": 1,
"timings": {"real": 32.89, "usr": 364.90, "sys": 2.13, "embedded": null}
},
{
"conf": "-d cython --fastmath 1 -l 64 -t 256 -s 4",
"rep": 2,
"timings": {"real": 32.96, "usr": 365.35, "sys": 1.93, "embedded": null}
},
{
"conf": "-d cython --fastmath 1 -l 128 -t 256 -s 4",
"rep": 1,
"timings": {"real": 60.29, "usr": 657.23, "sys": 3.58, "embedded": null}
},
{
"conf": "-d cython --fastmath 1 -l 128 -t 256 -s 4",
"rep": 2,
"timings": {"real": 60.20, "usr": 658.11, "sys": 3.66, "embedded": null}
},
{
"conf": "-d cython --fastmath 1 -l 256 -t 128 -s 4",
"rep": 1,
"timings": {"real": 30.04, "usr": 330.41, "sys": 1.74, "embedded": null}
},
{
"conf": "-d cython --fastmath 1 -l 256 -t 128 -s 4",
"rep": 2,
"timings": {"real": 29.71, "usr": 327.08, "sys": 1.69, "embedded": null}
},
{
"conf": "-d cython --fastmath 1 -l 512 -t 128 -s 4",
"rep": 1,
"timings": {"real": 59.38, "usr": 647.77, "sys": 3.27, "embedded": null}
},
{
"conf": "-d cython --fastmath 1 -l 512 -t 128 -s 4",
"rep": 2,
"timings": {"real": 59.00, "usr": 644.36, "sys": 3.24, "embedded": null}
},
{
"conf": "-d cython --fastmath 1 -l 1024 -t 64 -s 4",
"rep": 1,
"timings": {"real": 30.15, "usr": 331.31, "sys": 1.90, "embedded": null}
},
{
"conf": "-d cython --fastmath 1 -l 1024 -t 64 -s 4",
"rep": 2,
"timings": {"real": 30.14, "usr": 331.73, "sys": 1.86, "embedded": null}
},
{
"conf": "-d cython --fastmath 1 -l 2048 -t 64 -s 4",
"rep": 1,
"timings": {"real": 60.13, "usr": 653.61, "sys": 3.26, "embedded": null}
},
{
"conf": "-d cython --fastmath 1 -l 2048 -t 64 -s 4",
"rep": 2,
"timings": {"real": 60.09, "usr": 654.34, "sys": 3.32, "embedded": null}
},
{
"conf": "-d cython --fastmath 1 -l 32 -t 512 -s 8",
"rep": 1,
"timings": {"real": 107.12, "usr": 1186.65, "sys": 2.81, "embedded": null}
},
{
"conf": "-d cython --fastmath 1 -l 32 -t 512 -s 8",
"rep": 2,
"timings": {"real": 107.12, "usr": 1187.04, "sys": 2.90, "embedded": null}
},
{
"conf": "-d cython --fastmath 1 -l 64 -t 256 -s 8",
"rep": 1,
"timings": {"real": 48.43, "usr": 539.42, "sys": 2.35, "embedded": null}
},
{
"conf": "-d cython --fastmath 1 -l 64 -t 256 -s 8",
"rep": 2,
"timings": {"real": 47.88, "usr": 532.93, "sys": 2.19, "embedded": null}
},
{
"conf": "-d cython --fastmath 1 -l 128 -t 256 -s 8",
"rep": 1,
"timings": {"real": 96.77, "usr": 1073.73, "sys": 3.83, "embedded": null}
},
{
"conf": "-d cython --fastmath 1 -l 128 -t 256 -s 8",
"rep": 2,
"timings": {"real": 96.65, "usr": 1071.61, "sys": 4.07, "embedded": null}
},
{
"conf": "-d cython --fastmath 1 -l 256 -t 128 -s 8",
"rep": 1,
"timings": {"real": 48.41, "usr": 539.11, "sys": 1.97, "embedded": null}
},
{
"conf": "-d cython --fastmath 1 -l 256 -t 128 -s 8",
"rep": 2,
"timings": {"real": 48.15, "usr": 536.59, "sys": 2.05, "embedded": null}
},
{
"conf": "-d cython --fastmath 1 -l 512 -t 128 -s 8",
"rep": 1,
"timings": {"real": 96.00, "usr": 1063.66, "sys": 3.76, "embedded": null}
},
{
"conf": "-d cython --fastmath 1 -l 512 -t 128 -s 8",
"rep": 2,
"timings": {"real": 96.01, "usr": 1064.49, "sys": 3.73, "embedded": null}
},
{
"conf": "-d cython --fastmath 1 -l 1024 -t 64 -s 8",
"rep": 1,
"timings": {"real": 50.29, "usr": 559.44, "sys": 2.31, "embedded": null}
},
{
"conf": "-d cython --fastmath 1 -l 1024 -t 64 -s 8",
"rep": 2,
"timings": {"real": 50.62, "usr": 564.49, "sys": 2.19, "embedded": null}
},
{
"conf": "-d cython --fastmath 1 -l 2048 -t 64 -s 8",
"rep": 1,
"timings": {"real": 100.01, "usr": 1106.11, "sys": 4.09, "embedded": null}
},
{
"conf": "-d cython --fastmath 1 -l 2048 -t 64 -s 8",
"rep": 2,
"timings": {"real": 100.94, "usr": 1116.99, "sys": 3.89, "embedded": null}
}
],
"init_bench": [
{
"conf": "-d cython --fastmath 1 -l 32 -t 512 -s 2",
"rep": 1,
"timings": {"real": 6.56, "usr": 29.10, "sys": 1.29, "embedded": null}
},
{
"conf": "-d cython --fastmath 1 -l 32 -t 512 -s 2",
"rep": 2,
"timings": {"real": 6.56, "usr": 29.28, "sys": 1.28, "embedded": null}
},
{
"conf": "-d cython --fastmath 1 -l 64 -t 256 -s 2",
"rep": 1,
"timings": {"real": 3.68, "usr": 21.20, "sys": 1.45, "embedded": null}
},
{
"conf": "-d cython --fastmath 1 -l 64 -t 256 -s 2",
"rep": 2,
"timings": {"real": 3.65, "usr": 20.89, "sys": 1.51, "embedded": null}
},
{
"conf": "-d cython --fastmath 1 -l 128 -t 256 -s 2",
"rep": 1,
"timings": {"real": 7.41, "usr": 37.68, "sys": 2.82, "embedded": null}
},
{
"conf": "-d cython --fastmath 1 -l 128 -t 256 -s 2",
"rep": 2,
"timings": {"real": 7.43, "usr": 37.51, "sys": 2.68, "embedded": null}
},
{
"conf": "-d cython --fastmath 1 -l 256 -t 128 -s 2",
"rep": 1,
"timings": {"real": 3.88, "usr": 23.83, "sys": 1.50, "embedded": null}
},
{
"conf": "-d cython --fastmath 1 -l 256 -t 128 -s 2",
"rep": 2,
"timings": {"real": 3.87, "usr": 23.92, "sys": 1.39, "embedded": null}
},
{
"conf": "-d cython --fastmath 1 -l 512 -t 128 -s 2",
"rep": 1,
"timings": {"real": 7.67, "usr": 41.75, "sys": 2.55, "embedded": null}
},
{
"conf": "-d cython --fastmath 1 -l 512 -t 128 -s 2",
"rep": 2,
"timings": {"real": 7.63, "usr": 41.47, "sys": 2.70, "embedded": null}
},
{
"conf": "-d cython --fastmath 1 -l 1024 -t 64 -s 2",
"rep": 1,
"timings": {"real": 3.96, "usr": 24.92, "sys": 1.46, "embedded": null}
},
{
"conf": "-d cython --fastmath 1 -l 1024 -t 64 -s 2",
"rep": 2,
"timings": {"real": 3.97, "usr": 24.97, "sys": 1.54, "embedded": null}
},
{
"conf": "-d cython --fastmath 1 -l 2048 -t 64 -s 2",
"rep": 1,
"timings": {"real": 7.74, "usr": 41.56, "sys": 2.72, "embedded": null}
},
{
"conf": "-d cython --fastmath 1 -l 2048 -t 64 -s 2",
"rep": 2,
"timings": {"real": 7.69, "usr": 42.37, "sys": 2.69, "embedded": null}
},
{
"conf": "-d cython --fastmath 1 -l 32 -t 512 -s 4",
"rep": 1,
"timings": {"real": 8.39, "usr": 41.28, "sys": 1.42, "embedded": null}
},
{
"conf": "-d cython --fastmath 1 -l 32 -t 512 -s 4",
"rep": 2,
"timings": {"real": 8.27, "usr": 41.53, "sys": 1.35, "embedded": null}
},
{
"conf": "-d cython --fastmath 1 -l 64 -t 256 -s 4",
"rep": 1,
"timings": {"real": 4.48, "usr": 27.23, "sys": 1.60, "embedded": null}
},
{
"conf": "-d cython --fastmath 1 -l 64 -t 256 -s 4",
"rep": 2,
"timings": {"real": 4.49, "usr": 27.60, "sys": 1.60, "embedded": null}
},
{
"conf": "-d cython --fastmath 1 -l 128 -t 256 -s 4",
"rep": 1,
"timings": {"real": 9.52, "usr": 55.41, "sys": 2.84, "embedded": null}
},
{
"conf": "-d cython --fastmath 1 -l 128 -t 256 -s 4",
"rep": 2,
"timings": {"real": 9.52, "usr": 55.21, "sys": 2.75, "embedded": null}
},
{
"conf": "-d cython --fastmath 1 -l 256 -t 128 -s 4",
"rep": 1,
"timings": {"real": 5.00, "usr": 33.61, "sys": 1.58, "embedded": null}
},
{
"conf": "-d cython --fastmath 1 -l 256 -t 128 -s 4",
"rep": 2,
"timings": {"real": 5.00, "usr": 33.00, "sys": 1.53, "embedded": null}
},
{
"conf": "-d cython --fastmath 1 -l 512 -t 128 -s 4",
"rep": 1,
"timings": {"real": 9.78, "usr": 59.10, "sys": 2.72, "embedded": null}
},
{
"conf": "-d cython --fastmath 1 -l 512 -t 128 -s 4",
"rep": 2,
"timings": {"real": 9.84, "usr": 59.70, "sys": 2.80, "embedded": null}
},
{
"conf": "-d cython --fastmath 1 -l 1024 -t 64 -s 4",
"rep": 1,
"timings": {"real": 5.15, "usr": 34.48, "sys": 1.51, "embedded": null}
},
{
"conf": "-d cython --fastmath 1 -l 1024 -t 64 -s 4",
"rep": 2,
"timings": {"real": 5.08, "usr": 34.06, "sys": 1.60, "embedded": null}
},
{
"conf": "-d cython --fastmath 1 -l 2048 -t 64 -s 4",
"rep": 1,
"timings": {"real": 10.04, "usr": 60.29, "sys": 3.02, "embedded": null}
},
{
"conf": "-d cython --fastmath 1 -l 2048 -t 64 -s 4",
"rep": 2,
"timings": {"real": 10.02, "usr": 60.38, "sys": 2.82, "embedded": null}
},
{
"conf": "-d cython --fastmath 1 -l 32 -t 512 -s 8",
"rep": 1,
"timings": {"real": 12.34, "usr": 69.45, "sys": 1.70, "embedded": null}
},
{
"conf": "-d cython --fastmath 1 -l 32 -t 512 -s 8",
"rep": 2,
"timings": {"real": 12.37, "usr": 69.90, "sys": 1.63, "embedded": null}
},
{
"conf": "-d cython --fastmath 1 -l 64 -t 256 -s 8",
"rep": 1,
"timings": {"real": 6.50, "usr": 41.69, "sys": 1.74, "embedded": null}
},
{
"conf": "-d cython --fastmath 1 -l 64 -t 256 -s 8",
"rep": 2,
"timings": {"real": 6.55, "usr": 41.80, "sys": 1.76, "embedded": null}
},
{
"conf": "-d cython --fastmath 1 -l 128 -t 256 -s 8",
"rep": 1,
"timings": {"real": 14.18, "usr": 91.37, "sys": 3.14, "embedded": null}
},
{
"conf": "-d cython --fastmath 1 -l 128 -t 256 -s 8",
"rep": 2,
"timings": {"real": 14.15, "usr": 91.46, "sys": 3.10, "embedded": null}
},
{
"conf": "-d cython --fastmath 1 -l 256 -t 128 -s 8",
"rep": 1,
"timings": {"real": 7.33, "usr": 51.31, "sys": 1.69, "embedded": null}
},
{
"conf": "-d cython --fastmath 1 -l 256 -t 128 -s 8",
"rep": 2,
"timings": {"real": 7.25, "usr": 50.99, "sys": 1.73, "embedded": null}
},
{
"conf": "-d cython --fastmath 1 -l 512 -t 128 -s 8",
"rep": 1,
"timings": {"real": 14.54, "usr": 95.59, "sys": 3.11, "embedded": null}
},
{
"conf": "-d cython --fastmath 1 -l 512 -t 128 -s 8",
"rep": 2,
"timings": {"real": 16.63, "usr": 97.26, "sys": 3.27, "embedded": null}
},
{
"conf": "-d cython --fastmath 1 -l 1024 -t 64 -s 8",
"rep": 1,
"timings": {"real": 7.62, "usr": 53.26, "sys": 1.69, "embedded": null}
},
{
"conf": "-d cython --fastmath 1 -l 1024 -t 64 -s 8",
"rep": 2,
"timings": {"real": 7.65, "usr": 53.45, "sys": 1.76, "embedded": null}
},
{
"conf": "-d cython --fastmath 1 -l 2048 -t 64 -s 8",
"rep": 1,
"timings": {"real": 14.94, "usr": 96.80, "sys": 3.22, "embedded": null}
},
{
"conf": "-d cython --fastmath 1 -l 2048 -t 64 -s 8",
"rep": 2,
"timings": {"real": 15.20, "usr": 97.28, "sys": 3.33, "embedded": null}
}
]
}
