{
"evolve_bench":
{
"timing": {"real": 47.01, "usr": 46.69, "sys": 1.18}
}
,
"full_bench":
{
"timing": {"real": 47.04, "usr": 46.69, "sys": 1.21}
}
,
"init_bench":
{
"timing": {"real": 47.58, "usr": 46.97, "sys": 1.31}
}

}
