{
"device": "numba",
"evolve_bench": [
{
"conf": "-d numba --fastmath 1 -l 32 -t 512 -s 2",
"rep": 1,
"timings": {"real": 33.33, "usr": 140.12, "sys": 1.07, "embedded": {"total": 14.065310057252645, "avg": 0.7032655028626322}}
},
{
"conf": "-d numba --fastmath 1 -l 32 -t 512 -s 2",
"rep": 2,
"timings": {"real": 33.31, "usr": 139.90, "sys": 1.23, "embedded": {"total": 14.060103606432676, "avg": 0.7030051803216338}}
},
{
"conf": "-d numba --fastmath 1 -l 64 -t 256 -s 2",
"rep": 1,
"timings": {"real": 21.26, "usr": 76.58, "sys": 0.82, "embedded": {"total": 7.173488307744265, "avg": 0.35867441538721323}}
},
{
"conf": "-d numba --fastmath 1 -l 64 -t 256 -s 2",
"rep": 2,
"timings": {"real": 21.58, "usr": 76.73, "sys": 1.00, "embedded": {"total": 7.172026935964823, "avg": 0.3586013467982411}}
},
{
"conf": "-d numba --fastmath 1 -l 128 -t 256 -s 2",
"rep": 1,
"timings": {"real": 34.77, "usr": 140.58, "sys": 1.90, "embedded": {"total": 13.788132186979055, "avg": 0.6894066093489528}}
},
{
"conf": "-d numba --fastmath 1 -l 128 -t 256 -s 2",
"rep": 2,
"timings": {"real": 34.97, "usr": 140.80, "sys": 1.66, "embedded": {"total": 13.780927497893572, "avg": 0.6890463748946786}}
},
{
"conf": "-d numba --fastmath 1 -l 256 -t 128 -s 2",
"rep": 1,
"timings": {"real": 20.14, "usr": 69.96, "sys": 0.95, "embedded": {"total": 6.200490429997444, "avg": 0.3100245214998722}}
},
{
"conf": "-d numba --fastmath 1 -l 256 -t 128 -s 2",
"rep": 2,
"timings": {"real": 20.15, "usr": 69.94, "sys": 0.99, "embedded": {"total": 6.198362190276384, "avg": 0.3099181095138192}}
},
{
"conf": "-d numba --fastmath 1 -l 512 -t 128 -s 2",
"rep": 1,
"timings": {"real": 33.71, "usr": 133.64, "sys": 1.82, "embedded": {"total": 12.275708381086588, "avg": 0.6137854190543294}}
},
{
"conf": "-d numba --fastmath 1 -l 512 -t 128 -s 2",
"rep": 2,
"timings": {"real": 33.41, "usr": 133.21, "sys": 1.97, "embedded": {"total": 12.283737394958735, "avg": 0.6141868697479367}}
},
{
"conf": "-d numba --fastmath 1 -l 1024 -t 64 -s 2",
"rep": 1,
"timings": {"real": 20.18, "usr": 69.51, "sys": 0.93, "embedded": {"total": 6.049529705196619, "avg": 0.30247648525983095}}
},
{
"conf": "-d numba --fastmath 1 -l 1024 -t 64 -s 2",
"rep": 2,
"timings": {"real": 20.23, "usr": 69.55, "sys": 0.99, "embedded": {"total": 6.055612154304981, "avg": 0.30278060771524906}}
},
{
"conf": "-d numba --fastmath 1 -l 2048 -t 64 -s 2",
"rep": 1,
"timings": {"real": 33.39, "usr": 131.95, "sys": 1.97, "embedded": {"total": 12.066973373293877, "avg": 0.6033486686646938}}
},
{
"conf": "-d numba --fastmath 1 -l 2048 -t 64 -s 2",
"rep": 2,
"timings": {"real": 33.37, "usr": 131.92, "sys": 1.95, "embedded": {"total": 12.061995889991522, "avg": 0.6030997944995761}}
},
{
"conf": "-d numba --fastmath 1 -l 32 -t 512 -s 4",
"rep": 1,
"timings": {"real": 58.25, "usr": 278.17, "sys": 1.39, "embedded": {"total": 29.163514278829098, "avg": 1.4581757139414548}}
},
{
"conf": "-d numba --fastmath 1 -l 32 -t 512 -s 4",
"rep": 2,
"timings": {"real": 58.12, "usr": 279.01, "sys": 1.09, "embedded": {"total": 29.235291372984648, "avg": 1.4617645686492324}}
},
{
"conf": "-d numba --fastmath 1 -l 64 -t 256 -s 4",
"rep": 1,
"timings": {"real": 31.94, "usr": 139.86, "sys": 1.06, "embedded": {"total": 14.26439131423831, "avg": 0.7132195657119155}}
},
{
"conf": "-d numba --fastmath 1 -l 64 -t 256 -s 4",
"rep": 2,
"timings": {"real": 31.72, "usr": 139.74, "sys": 1.04, "embedded": {"total": 14.270376086235046, "avg": 0.7135188043117523}}
},
{
"conf": "-d numba --fastmath 1 -l 128 -t 256 -s 4",
"rep": 1,
"timings": {"real": 58.16, "usr": 257.63, "sys": 1.96, "embedded": {"total": 25.60995225980878, "avg": 1.2804976129904388}}
},
{
"conf": "-d numba --fastmath 1 -l 128 -t 256 -s 4",
"rep": 2,
"timings": {"real": 58.32, "usr": 257.53, "sys": 2.11, "embedded": {"total": 25.600913286209106, "avg": 1.2800456643104554}}
},
{
"conf": "-d numba --fastmath 1 -l 256 -t 128 -s 4",
"rep": 1,
"timings": {"real": 32.06, "usr": 130.98, "sys": 1.02, "embedded": {"total": 12.58938129991293, "avg": 0.6294690649956465}}
},
{
"conf": "-d numba --fastmath 1 -l 256 -t 128 -s 4",
"rep": 2,
"timings": {"real": 31.95, "usr": 130.70, "sys": 1.11, "embedded": {"total": 12.58663310855627, "avg": 0.6293316554278136}}
},
{
"conf": "-d numba --fastmath 1 -l 512 -t 128 -s 4",
"rep": 1,
"timings": {"real": 58.14, "usr": 257.98, "sys": 1.97, "embedded": {"total": 25.30697577819228, "avg": 1.265348788909614}}
},
{
"conf": "-d numba --fastmath 1 -l 512 -t 128 -s 4",
"rep": 2,
"timings": {"real": 58.37, "usr": 258.46, "sys": 1.96, "embedded": {"total": 25.35072546824813, "avg": 1.2675362734124065}}
},
{
"conf": "-d numba --fastmath 1 -l 1024 -t 64 -s 4",
"rep": 1,
"timings": {"real": 32.19, "usr": 130.04, "sys": 1.20, "embedded": {"total": 12.378984451293945, "avg": 0.6189492225646973}}
},
{
"conf": "-d numba --fastmath 1 -l 1024 -t 64 -s 4",
"rep": 2,
"timings": {"real": 32.42, "usr": 130.31, "sys": 1.24, "embedded": {"total": 12.39595440402627, "avg": 0.6197977202013135}}
},
{
"conf": "-d numba --fastmath 1 -l 2048 -t 64 -s 4",
"rep": 1,
"timings": {"real": 58.47, "usr": 256.49, "sys": 2.08, "embedded": {"total": 24.960588056594133, "avg": 1.2480294028297068}}
},
{
"conf": "-d numba --fastmath 1 -l 2048 -t 64 -s 4",
"rep": 2,
"timings": {"real": 58.11, "usr": 256.26, "sys": 2.13, "embedded": {"total": 24.98201071470976, "avg": 1.2491005357354878}}
},
{
"conf": "-d numba --fastmath 1 -l 32 -t 512 -s 8",
"rep": 1,
"timings": {"real": 108.50, "usr": 567.79, "sys": 1.55, "embedded": {"total": 60.811092264950275, "avg": 3.040554613247514}}
},
{
"conf": "-d numba --fastmath 1 -l 32 -t 512 -s 8",
"rep": 2,
"timings": {"real": 108.74, "usr": 568.17, "sys": 1.41, "embedded": {"total": 60.802543342113495, "avg": 3.0401271671056747}}
},
{
"conf": "-d numba --fastmath 1 -l 64 -t 256 -s 8",
"rep": 1,
"timings": {"real": 52.77, "usr": 247.21, "sys": 1.15, "embedded": {"total": 25.25376184657216, "avg": 1.2626880923286081}}
},
{
"conf": "-d numba --fastmath 1 -l 64 -t 256 -s 8",
"rep": 2,
"timings": {"real": 52.27, "usr": 246.84, "sys": 1.17, "embedded": {"total": 25.29195012897253, "avg": 1.2645975064486266}}
},
{
"conf": "-d numba --fastmath 1 -l 128 -t 256 -s 8",
"rep": 1,
"timings": {"real": 109.76, "usr": 525.90, "sys": 2.51, "embedded": {"total": 53.80344436317682, "avg": 2.690172218158841}}
},
{
"conf": "-d numba --fastmath 1 -l 128 -t 256 -s 8",
"rep": 2,
"timings": {"real": 110.67, "usr": 526.97, "sys": 2.44, "embedded": {"total": 53.82124871760607, "avg": 2.6910624358803035}}
},
{
"conf": "-d numba --fastmath 1 -l 256 -t 128 -s 8",
"rep": 1,
"timings": {"real": 57.25, "usr": 259.53, "sys": 1.28, "embedded": {"total": 26.072747819125652, "avg": 1.3036373909562826}}
},
{
"conf": "-d numba --fastmath 1 -l 256 -t 128 -s 8",
"rep": 2,
"timings": {"real": 57.56, "usr": 259.78, "sys": 1.41, "embedded": {"total": 26.08263559266925, "avg": 1.3041317796334624}}
},
{
"conf": "-d numba --fastmath 1 -l 512 -t 128 -s 8",
"rep": 1,
"timings": {"real": 109.84, "usr": 526.04, "sys": 2.66, "embedded": {"total": 53.33295088633895, "avg": 2.6666475443169473}}
},
{
"conf": "-d numba --fastmath 1 -l 512 -t 128 -s 8",
"rep": 2,
"timings": {"real": 109.50, "usr": 525.78, "sys": 2.57, "embedded": {"total": 53.3430501781404, "avg": 2.6671525089070203}}
},
{
"conf": "-d numba --fastmath 1 -l 1024 -t 64 -s 8",
"rep": 1,
"timings": {"real": 58.38, "usr": 262.07, "sys": 1.42, "embedded": {"total": 26.10317211225629, "avg": 1.3051586056128144}}
},
{
"conf": "-d numba --fastmath 1 -l 1024 -t 64 -s 8",
"rep": 2,
"timings": {"real": 58.64, "usr": 261.88, "sys": 1.57, "embedded": {"total": 26.041864972561598, "avg": 1.3020932486280798}}
},
{
"conf": "-d numba --fastmath 1 -l 2048 -t 64 -s 8",
"rep": 1,
"timings": {"real": 110.85, "usr": 526.85, "sys": 2.88, "embedded": {"total": 53.361275270581245, "avg": 2.6680637635290623}}
},
{
"conf": "-d numba --fastmath 1 -l 2048 -t 64 -s 8",
"rep": 2,
"timings": {"real": 110.19, "usr": 525.42, "sys": 3.13, "embedded": {"total": 53.27912909165025, "avg": 2.6639564545825123}}
}
],
"full_bench": [
{
"conf": "-d numba --fastmath 1 -l 32 -t 512 -s 2",
"rep": 1,
"timings": {"real": 65.24, "usr": 266.40, "sys": 3.36, "embedded": null}
},
{
"conf": "-d numba --fastmath 1 -l 32 -t 512 -s 2",
"rep": 2,
"timings": {"real": 64.76, "usr": 265.52, "sys": 3.45, "embedded": null}
},
{
"conf": "-d numba --fastmath 1 -l 64 -t 256 -s 2",
"rep": 1,
"timings": {"real": 35.13, "usr": 136.82, "sys": 1.56, "embedded": null}
},
{
"conf": "-d numba --fastmath 1 -l 64 -t 256 -s 2",
"rep": 2,
"timings": {"real": 34.82, "usr": 136.13, "sys": 1.43, "embedded": null}
},
{
"conf": "-d numba --fastmath 1 -l 128 -t 256 -s 2",
"rep": 1,
"timings": {"real": 55.07, "usr": 251.38, "sys": 2.35, "embedded": null}
},
{
"conf": "-d numba --fastmath 1 -l 128 -t 256 -s 2",
"rep": 2,
"timings": {"real": 55.11, "usr": 251.45, "sys": 2.32, "embedded": null}
},
{
"conf": "-d numba --fastmath 1 -l 256 -t 128 -s 2",
"rep": 1,
"timings": {"real": 30.85, "usr": 124.35, "sys": 1.15, "embedded": null}
},
{
"conf": "-d numba --fastmath 1 -l 256 -t 128 -s 2",
"rep": 2,
"timings": {"real": 30.86, "usr": 124.31, "sys": 1.17, "embedded": null}
},
{
"conf": "-d numba --fastmath 1 -l 512 -t 128 -s 2",
"rep": 1,
"timings": {"real": 51.37, "usr": 243.93, "sys": 1.97, "embedded": null}
},
{
"conf": "-d numba --fastmath 1 -l 512 -t 128 -s 2",
"rep": 2,
"timings": {"real": 51.24, "usr": 243.99, "sys": 2.11, "embedded": null}
},
{
"conf": "-d numba --fastmath 1 -l 1024 -t 64 -s 2",
"rep": 1,
"timings": {"real": 30.07, "usr": 122.58, "sys": 1.07, "embedded": null}
},
{
"conf": "-d numba --fastmath 1 -l 1024 -t 64 -s 2",
"rep": 2,
"timings": {"real": 30.20, "usr": 122.67, "sys": 1.04, "embedded": null}
},
{
"conf": "-d numba --fastmath 1 -l 2048 -t 64 -s 2",
"rep": 1,
"timings": {"real": 50.48, "usr": 240.60, "sys": 1.86, "embedded": null}
},
{
"conf": "-d numba --fastmath 1 -l 2048 -t 64 -s 2",
"rep": 2,
"timings": {"real": 50.43, "usr": 240.70, "sys": 1.83, "embedded": null}
},
{
"conf": "-d numba --fastmath 1 -l 32 -t 512 -s 4",
"rep": 1,
"timings": {"real": 89.66, "usr": 399.75, "sys": 3.61, "embedded": null}
},
{
"conf": "-d numba --fastmath 1 -l 32 -t 512 -s 4",
"rep": 2,
"timings": {"real": 89.39, "usr": 399.01, "sys": 3.46, "embedded": null}
},
{
"conf": "-d numba --fastmath 1 -l 64 -t 256 -s 4",
"rep": 1,
"timings": {"real": 46.27, "usr": 199.47, "sys": 1.57, "embedded": null}
},
{
"conf": "-d numba --fastmath 1 -l 64 -t 256 -s 4",
"rep": 2,
"timings": {"real": 45.66, "usr": 198.51, "sys": 1.65, "embedded": null}
},
{
"conf": "-d numba --fastmath 1 -l 128 -t 256 -s 4",
"rep": 1,
"timings": {"real": 77.50, "usr": 364.03, "sys": 2.63, "embedded": null}
},
{
"conf": "-d numba --fastmath 1 -l 128 -t 256 -s 4",
"rep": 2,
"timings": {"real": 78.02, "usr": 364.48, "sys": 2.49, "embedded": null}
},
{
"conf": "-d numba --fastmath 1 -l 256 -t 128 -s 4",
"rep": 1,
"timings": {"real": 42.83, "usr": 184.45, "sys": 1.25, "embedded": null}
},
{
"conf": "-d numba --fastmath 1 -l 256 -t 128 -s 4",
"rep": 2,
"timings": {"real": 42.90, "usr": 185.43, "sys": 1.39, "embedded": null}
},
{
"conf": "-d numba --fastmath 1 -l 512 -t 128 -s 4",
"rep": 1,
"timings": {"real": 75.30, "usr": 364.71, "sys": 2.46, "embedded": null}
},
{
"conf": "-d numba --fastmath 1 -l 512 -t 128 -s 4",
"rep": 2,
"timings": {"real": 75.43, "usr": 364.86, "sys": 2.28, "embedded": null}
},
{
"conf": "-d numba --fastmath 1 -l 1024 -t 64 -s 4",
"rep": 1,
"timings": {"real": 42.29, "usr": 182.67, "sys": 1.10, "embedded": null}
},
{
"conf": "-d numba --fastmath 1 -l 1024 -t 64 -s 4",
"rep": 2,
"timings": {"real": 42.24, "usr": 182.54, "sys": 1.23, "embedded": null}
},
{
"conf": "-d numba --fastmath 1 -l 2048 -t 64 -s 4",
"rep": 1,
"timings": {"real": 74.73, "usr": 361.44, "sys": 2.09, "embedded": null}
},
{
"conf": "-d numba --fastmath 1 -l 2048 -t 64 -s 4",
"rep": 2,
"timings": {"real": 74.83, "usr": 361.40, "sys": 2.29, "embedded": null}
},
{
"conf": "-d numba --fastmath 1 -l 32 -t 512 -s 8",
"rep": 1,
"timings": {"real": 137.90, "usr": 674.67, "sys": 3.79, "embedded": null}
},
{
"conf": "-d numba --fastmath 1 -l 32 -t 512 -s 8",
"rep": 2,
"timings": {"real": 138.33, "usr": 674.81, "sys": 3.82, "embedded": null}
},
{
"conf": "-d numba --fastmath 1 -l 64 -t 256 -s 8",
"rep": 1,
"timings": {"real": 65.50, "usr": 301.57, "sys": 1.95, "embedded": null}
},
{
"conf": "-d numba --fastmath 1 -l 64 -t 256 -s 8",
"rep": 2,
"timings": {"real": 65.80, "usr": 301.83, "sys": 1.95, "embedded": null}
},
{
"conf": "-d numba --fastmath 1 -l 128 -t 256 -s 8",
"rep": 1,
"timings": {"real": 127.57, "usr": 621.31, "sys": 3.12, "embedded": null}
},
{
"conf": "-d numba --fastmath 1 -l 128 -t 256 -s 8",
"rep": 2,
"timings": {"real": 127.76, "usr": 621.39, "sys": 2.95, "embedded": null}
},
{
"conf": "-d numba --fastmath 1 -l 256 -t 128 -s 8",
"rep": 1,
"timings": {"real": 67.40, "usr": 308.98, "sys": 1.63, "embedded": null}
},
{
"conf": "-d numba --fastmath 1 -l 256 -t 128 -s 8",
"rep": 2,
"timings": {"real": 67.33, "usr": 308.63, "sys": 1.57, "embedded": null}
},
{
"conf": "-d numba --fastmath 1 -l 512 -t 128 -s 8",
"rep": 1,
"timings": {"real": 126.60, "usr": 622.94, "sys": 2.80, "embedded": null}
},
{
"conf": "-d numba --fastmath 1 -l 512 -t 128 -s 8",
"rep": 2,
"timings": {"real": 126.29, "usr": 622.49, "sys": 2.93, "embedded": null}
},
{
"conf": "-d numba --fastmath 1 -l 1024 -t 64 -s 8",
"rep": 1,
"timings": {"real": 67.50, "usr": 309.85, "sys": 1.55, "embedded": null}
},
{
"conf": "-d numba --fastmath 1 -l 1024 -t 64 -s 8",
"rep": 2,
"timings": {"real": 67.52, "usr": 309.95, "sys": 1.58, "embedded": null}
},
{
"conf": "-d numba --fastmath 1 -l 2048 -t 64 -s 8",
"rep": 1,
"timings": {"real": 125.26, "usr": 620.13, "sys": 2.95, "embedded": null}
},
{
"conf": "-d numba --fastmath 1 -l 2048 -t 64 -s 8",
"rep": 2,
"timings": {"real": 126.26, "usr": 622.11, "sys": 2.98, "embedded": null}
}
],
"init_bench": [
{
"conf": "-d numba --fastmath 1 -l 32 -t 512 -s 2",
"rep": 1,
"timings": {"real": 16.98, "usr": 22.92, "sys": 0.94, "embedded": null}
},
{
"conf": "-d numba --fastmath 1 -l 32 -t 512 -s 2",
"rep": 2,
"timings": {"real": 16.99, "usr": 22.96, "sys": 0.84, "embedded": null}
},
{
"conf": "-d numba --fastmath 1 -l 64 -t 256 -s 2",
"rep": 1,
"timings": {"real": 11.96, "usr": 16.31, "sys": 0.79, "embedded": null}
},
{
"conf": "-d numba --fastmath 1 -l 64 -t 256 -s 2",
"rep": 2,
"timings": {"real": 12.03, "usr": 16.35, "sys": 0.79, "embedded": null}
},
{
"conf": "-d numba --fastmath 1 -l 128 -t 256 -s 2",
"rep": 1,
"timings": {"real": 18.50, "usr": 28.35, "sys": 1.66, "embedded": null}
},
{
"conf": "-d numba --fastmath 1 -l 128 -t 256 -s 2",
"rep": 2,
"timings": {"real": 18.67, "usr": 28.73, "sys": 1.45, "embedded": null}
},
{
"conf": "-d numba --fastmath 1 -l 256 -t 128 -s 2",
"rep": 1,
"timings": {"real": 11.95, "usr": 17.64, "sys": 0.83, "embedded": null}
},
{
"conf": "-d numba --fastmath 1 -l 256 -t 128 -s 2",
"rep": 2,
"timings": {"real": 11.90, "usr": 17.59, "sys": 0.85, "embedded": null}
},
{
"conf": "-d numba --fastmath 1 -l 512 -t 128 -s 2",
"rep": 1,
"timings": {"real": 18.66, "usr": 30.64, "sys": 1.74, "embedded": null}
},
{
"conf": "-d numba --fastmath 1 -l 512 -t 128 -s 2",
"rep": 2,
"timings": {"real": 18.71, "usr": 30.71, "sys": 1.72, "embedded": null}
},
{
"conf": "-d numba --fastmath 1 -l 1024 -t 64 -s 2",
"rep": 1,
"timings": {"real": 12.05, "usr": 18.01, "sys": 0.89, "embedded": null}
},
{
"conf": "-d numba --fastmath 1 -l 1024 -t 64 -s 2",
"rep": 2,
"timings": {"real": 11.99, "usr": 18.00, "sys": 0.85, "embedded": null}
},
{
"conf": "-d numba --fastmath 1 -l 2048 -t 64 -s 2",
"rep": 1,
"timings": {"real": 19.00, "usr": 31.17, "sys": 1.56, "embedded": null}
},
{
"conf": "-d numba --fastmath 1 -l 2048 -t 64 -s 2",
"rep": 2,
"timings": {"real": 18.96, "usr": 31.03, "sys": 1.69, "embedded": null}
},
{
"conf": "-d numba --fastmath 1 -l 32 -t 512 -s 4",
"rep": 1,
"timings": {"real": 25.90, "usr": 35.90, "sys": 0.82, "embedded": null}
},
{
"conf": "-d numba --fastmath 1 -l 32 -t 512 -s 4",
"rep": 2,
"timings": {"real": 25.75, "usr": 35.65, "sys": 0.98, "embedded": null}
},
{
"conf": "-d numba --fastmath 1 -l 64 -t 256 -s 4",
"rep": 1,
"timings": {"real": 15.62, "usr": 21.73, "sys": 0.91, "embedded": null}
},
{
"conf": "-d numba --fastmath 1 -l 64 -t 256 -s 4",
"rep": 2,
"timings": {"real": 15.25, "usr": 21.51, "sys": 0.74, "embedded": null}
},
{
"conf": "-d numba --fastmath 1 -l 128 -t 256 -s 4",
"rep": 1,
"timings": {"real": 29.44, "usr": 45.52, "sys": 1.65, "embedded": null}
},
{
"conf": "-d numba --fastmath 1 -l 128 -t 256 -s 4",
"rep": 2,
"timings": {"real": 29.08, "usr": 45.01, "sys": 1.66, "embedded": null}
},
{
"conf": "-d numba --fastmath 1 -l 256 -t 128 -s 4",
"rep": 1,
"timings": {"real": 18.06, "usr": 26.96, "sys": 0.92, "embedded": null}
},
{
"conf": "-d numba --fastmath 1 -l 256 -t 128 -s 4",
"rep": 2,
"timings": {"real": 17.26, "usr": 26.17, "sys": 0.89, "embedded": null}
},
{
"conf": "-d numba --fastmath 1 -l 512 -t 128 -s 4",
"rep": 1,
"timings": {"real": 29.78, "usr": 48.31, "sys": 1.75, "embedded": null}
},
{
"conf": "-d numba --fastmath 1 -l 512 -t 128 -s 4",
"rep": 2,
"timings": {"real": 29.79, "usr": 48.33, "sys": 1.77, "embedded": null}
},
{
"conf": "-d numba --fastmath 1 -l 1024 -t 64 -s 4",
"rep": 1,
"timings": {"real": 17.50, "usr": 26.75, "sys": 0.95, "embedded": null}
},
{
"conf": "-d numba --fastmath 1 -l 1024 -t 64 -s 4",
"rep": 2,
"timings": {"real": 17.54, "usr": 26.87, "sys": 0.88, "embedded": null}
},
{
"conf": "-d numba --fastmath 1 -l 2048 -t 64 -s 4",
"rep": 1,
"timings": {"real": 30.38, "usr": 49.31, "sys": 1.75, "embedded": null}
},
{
"conf": "-d numba --fastmath 1 -l 2048 -t 64 -s 4",
"rep": 2,
"timings": {"real": 30.61, "usr": 49.46, "sys": 1.79, "embedded": null}
},
{
"conf": "-d numba --fastmath 1 -l 32 -t 512 -s 8",
"rep": 1,
"timings": {"real": 43.73, "usr": 63.86, "sys": 1.27, "embedded": null}
},
{
"conf": "-d numba --fastmath 1 -l 32 -t 512 -s 8",
"rep": 2,
"timings": {"real": 44.10, "usr": 64.45, "sys": 0.99, "embedded": null}
},
{
"conf": "-d numba --fastmath 1 -l 64 -t 256 -s 8",
"rep": 1,
"timings": {"real": 24.27, "usr": 35.86, "sys": 0.88, "embedded": null}
},
{
"conf": "-d numba --fastmath 1 -l 64 -t 256 -s 8",
"rep": 2,
"timings": {"real": 24.72, "usr": 36.28, "sys": 0.95, "embedded": null}
},
{
"conf": "-d numba --fastmath 1 -l 128 -t 256 -s 8",
"rep": 1,
"timings": {"real": 51.11, "usr": 81.28, "sys": 1.87, "embedded": null}
},
{
"conf": "-d numba --fastmath 1 -l 128 -t 256 -s 8",
"rep": 2,
"timings": {"real": 51.29, "usr": 81.45, "sys": 1.82, "embedded": null}
},
{
"conf": "-d numba --fastmath 1 -l 256 -t 128 -s 8",
"rep": 1,
"timings": {"real": 28.28, "usr": 44.14, "sys": 1.05, "embedded": null}
},
{
"conf": "-d numba --fastmath 1 -l 256 -t 128 -s 8",
"rep": 2,
"timings": {"real": 28.25, "usr": 44.21, "sys": 0.95, "embedded": null}
},
{
"conf": "-d numba --fastmath 1 -l 512 -t 128 -s 8",
"rep": 1,
"timings": {"real": 52.32, "usr": 85.39, "sys": 1.82, "embedded": null}
},
{
"conf": "-d numba --fastmath 1 -l 512 -t 128 -s 8",
"rep": 2,
"timings": {"real": 52.36, "usr": 85.22, "sys": 2.05, "embedded": null}
},
{
"conf": "-d numba --fastmath 1 -l 1024 -t 64 -s 8",
"rep": 1,
"timings": {"real": 29.65, "usr": 46.36, "sys": 1.07, "embedded": null}
},
{
"conf": "-d numba --fastmath 1 -l 1024 -t 64 -s 8",
"rep": 2,
"timings": {"real": 29.31, "usr": 46.10, "sys": 1.02, "embedded": null}
},
{
"conf": "-d numba --fastmath 1 -l 2048 -t 64 -s 8",
"rep": 1,
"timings": {"real": 53.43, "usr": 87.11, "sys": 2.02, "embedded": null}
},
{
"conf": "-d numba --fastmath 1 -l 2048 -t 64 -s 8",
"rep": 2,
"timings": {"real": 54.26, "usr": 87.92, "sys": 2.06, "embedded": null}
}
]
}
